/* XPM */
static char *test2[]={
"32 32 11 1",
". c None",
"a c #000000",
"d c #008100",
"e c #00ff00",
"g c #830000",
"h c #838100",
"# c #838183",
"c c #c5c2c5",
"f c #ff0000",
"i c #ffff00",
"b c #ffffff",
"................................",
"................................",
"................................",
"................................",
"................................",
"................................",
"................................",
"#############################a..",
"#bbbbbbbbbbbbbbbbbbbbbbbbbbbba..",
"#cdddcddddcdddcdecedecddddcdda..",
"#cfddcddddcdddcddcdddcddddcdda..",
"#cdd###ad###adcddcdd####adccca#a",
"#cdd###ad###adcddcdd####adcddaba",
"#cfdaaaadaaaadcddcdd####adcddaca",
"#cddddddddddddccccdd####adcccaca",
"#cdd###ad###adcdddddaaaaadcddaca",
"#cfd###ad###adcdddddddddddcddaca",
"#cddaaaadaaaadcccceccecceccddaca",
"#cddddddddddddcddddddddddddddaca",
"#cdd###ad###adcddd###ad###addaca",
"#cdd###ad###adcdddaaaadaaaaddaaa",
"#cddaaaadaaaadcdddddddddddddda..",
"#cddddcddddcddcddddgddgddgddda..",
"#cccccccccccccccccccccccccccca..",
"aaaaaaaaaaaaaaa#hihihihihaaaaa..",
"...............#hihihihiha......",
"...............#hihihihiha......",
"...............aaaaaaaaaaa......",
"................................",
"................................",
"................................",
"................................"};
