/* XPM */
static char *pixmap[] = {
/* width height ncols cpp */
"16 16 4 2",
  /* Colors */
  "00 c #000000",
  "01 c #FF0000",
  "02 c #FFFF00",
  ".. s None c None",
  "010101010101010101010101010100..",
  "01010101010101010101010101000200",
  "01010101010101010101010100020001",
  "01010101010101010101010002000101",
  "01010101010101010101000200010101",
  "01010101010101010100020001010101",
  "01010101010101010100020001010101",
  "01010101010101010002000101010101",
  "01000000010101000202000101010101",
  "01000202000100020200010101010101",
  "01010002020000020200010101010101",
  "01010100020202020001010101010101",
  "01010101000202020001010101010101",
  "01010101010002000101010101010101",
  "01010101010100010101010101010101",
  "01010101010101010101010101010101",
};
